    /* TEAM */

                                
    CEO: Carsten Dingendahl.

                                
    Site: ndaal.eu, info@ndaal.eu

                                                  
    Location: Cologne, Germany.

                             

                 
                        [...]
						


    							
    /* THANKS */

    							
    Name: Tobias Feuling, Carsten Dingendahl, Andre` Breuer

                       
                                
    /* SITE */

                                
    Last update: 2022/12/19 

                                
    Standards: HTML5, CSS3,..

                                
    Components: WordPress

                                
    Software: VSCodium, WordPress